{
    "Jade": {
        "link"   : "https://www.pokecommunity.com/showthread.php?t=409336",
        "version": "3.21",
        "reason" : "modifiable or (Speedup and ControlRemapping) = false"
    },

    "Radian": {
        "link"   : "https://www.pokecommunity.com/showthread.php?t=412499",
        "version": "4.1",
        "reason" : "Portrait screen",
        "further": "https://gist.github.com/SPSquonK/8d950761b5d686f3edca5add27ba0192"
    }
}